﻿【日月光-商業行為與道德遵循舉報系統 匯出日期：2019/9/17 17:39:7 資料筆數： 2
案件編號,舉報時間,與日月光的關係,舉報人聯絡資料,涉案廠區,涉案人員,舉報議題,案發地點,案發時間,案發經過,違規行為,管理階層是否知情,問題持續時間,違反行為的方法,案發細節與證據,檔案一,檔案二,檔案三,檔案四
"000067","2019/9/17","Others","   ","Others","TEST1 TEST1 TEST1 TEST1、TEST2 TEST2 TEST2 TEST2、TEST3 TEST3 TEST3 TEST3","Others","TESTTESTTESTTEST","2019/9/17","TESTTESTTESTTEST","Others","Do Not Know","1 年又 5 月","TESTTESTTESTTEST","TESTTESTTESTTEST","67_2019917_1.docx","67_2019917_2.pdf","67_2019917_3.png","67_2019917_4.xlsx",
"000066","2019/9/17","其他","欢迎 欢迎 ?迎 zzz@aaa.bb","Others","测试 测试 测试 测试、测试2 测试2 测试2 测试2、联系 联系 联系 联系、标示 标示 标示 标示","其他","欢迎随时联系","此收条表明收件人的电脑上曾显示过此邮件,显示时间： 2019-08-19 17:57:23","请确认附件中对应的MVT 没有我们做账的901&911，签呈报废的做账时间大多都不能对上，另外有MVT:521，不是PMC签呈做账，谢谢！ 
测试测试测试测试测试","其他","不確定","1 年又 11 月","请见附件1-6标示黄色部分是WH 相关资料的母体，有些资料不是我这边提供的我已经做了标示（见附件7），还有需要提供具体信息才能提供资料（已如电话沟通），若有疑问可以咨询我，请知悉！
测试测试测试测试测试","EHS部分资料已OK，我请USI 稽核室同仁Linda传给您。其中消防部分，已通知FAC同仁会稍晚放在以下链接。 另外，需要下脚料内容含在我的废弃物管理部分，请您届时分享与他确认，谢谢。
测试测试测试测试测试","66_2019917_1.docx","66_2019917_2.jpg","66_2019917_3.pdf","66_2019917_4.xlsx",
