﻿【日月光-商業行為與道德遵循舉報系統 匯出日期：2019/5/2 13:39:57 資料筆數： 2
案件編號,舉報時間,與日月光的關係,舉報人聯絡資料,涉案廠區,涉案人員,舉報議題,案發地點,案發時間,案發經過,違規行為,管理階層是否知情,問題持續時間,違反行為的方法,案發細節與證據,檔案一,檔案二,檔案三,檔案四
"000057","2019/5/2","員工","   ","Advanced Semiconductor Engineering, Inc. and its subsidiaries","Dummy5 Dummy5 Dummy5 Dummy5","利益衝突","K7","2019/5/2","中文舉報系統測試","同事及親友的經歷","是","1 年又 10 月","no idea at all.","系統測試0502xxxxyyyzzz","57_201952_1.pdf","57_201952_2.pdf","57_201952_3.pdf","57_201952_4.pdf",
"000056","2019/5/2","Suppliers/Contractor","   ","Shanghai Ding Hui Real Estate Development Co., Ltd. and its subsidiaries","Dummy4 Dummy4 Dummy4 Dummy4","Corruption","Shanghai site","System testing for English version 0502","System testing only - xxxyyyzzz","Personal Experience","yes","2 年又 8 月","But no action taken at all.","No evidence - System testing only","56_201952_1.pdf","56_201952_2.pdf","56_201952_3.pdf","56_201952_4.pdf",
