﻿【日月光-商業行為與道德遵循舉報系統 匯出日期：2019/11/13 10:54:33 資料筆數： 16
案件編號,舉報時間,與日月光的關係,舉報人聯絡資料,涉案廠區,涉案人員,舉報議題,案發地點,案發時間,案發經過,違規行為,管理階層是否知情,問題持續時間,違反行為的方法,案發細節與證據,檔案一,檔案二,檔案三,檔案四
"000071","2019/11/12","其他","   ","Advanced Semiconductor Engineering, Inc. and its subsidiaries","邱琬婷 K23 B080 副理、* * * *","其他","","","K23 8樓 邱姓副理會帶智慧型手機進辦公室, 且會在辦公室使用聊天群組, 例如: Line
就本人所知,此人及其下屬會將公司筆電帶回家,並將貨況拍照並傳至群組討論
","同事及親友的經歷","是","","","","","","","",
"000070","2019/11/5","供應商/承攬商","test test test Folown67@fleckens.hu","Others","test test test test","其他","test","test","test","網路","否","0 年又 0 月","test","test","70_2019115_1.jpg","70_2019115_2.txt","70_2019115_3.txt","70_2019115_4.txt",
"000069","2019/11/4","其他","   ","Others","test test test test","其他","","","test","其他","","","","","69_2019114_1.jpg","69_2019114_2.txt","","",
"000068","2019/11/2","供應商/承攬商","   ","Advanced Semiconductor Engineering, Inc. and its subsidiaries","1 1 1 1、 1 1 1","舞弊","","","a","親身經歷","","","","","68_2019112_1.gif","","","",
"000067","2019/9/17","Others","   ","Others","TEST1 TEST1 TEST1 TEST1、TEST2 TEST2 TEST2 TEST2、TEST3 TEST3 TEST3 TEST3","Others","TESTTESTTESTTEST","2019/9/17","TESTTESTTESTTEST","Others","Do Not Know","1 年又 5 月","TESTTESTTESTTEST","TESTTESTTESTTEST","67_2019917_1.docx","67_2019917_2.pdf","67_2019917_3.png","67_2019917_4.xlsx",
"000066","2019/9/17","其他","欢迎 欢迎 ?迎 zzz@aaa.bb","Others","测试 测试 测试 测试、测试2 测试2 测试2 测试2、联系 联系 联系 联系、标示 标示 标示 标示","其他","欢迎随时联系","此收条表明收件人的电脑上曾显示过此邮件,显示时间： 2019-08-19 17:57:23","请确认附件中对应的MVT 没有我们做账的901&911，签呈报废的做账时间大多都不能对上，另外有MVT:521，不是PMC签呈做账，谢谢！ 
测试测试测试测试测试","其他","不確定","1 年又 11 月","请见附件1-6标示黄色部分是WH 相关资料的母体，有些资料不是我这边提供的我已经做了标示（见附件7），还有需要提供具体信息才能提供资料（已如电话沟通），若有疑问可以咨询我，请知悉！
测试测试测试测试测试","EHS部分资料已OK，我请USI 稽核室同仁Linda传给您。其中消防部分，已通知FAC同仁会稍晚放在以下链接。 另外，需要下脚料内容含在我的废弃物管理部分，请您届时分享与他确认，谢谢。
测试测试测试测试测试","66_2019917_1.docx","66_2019917_2.jpg","66_2019917_3.pdf","66_2019917_4.xlsx",
"000065","2019/9/9","Customers","测试 测试  ","ASE Industrial Holding Co., Ltd","测试 测试 测试 测试","Corruption","测试","测试","测试","Personal Experience","Do Not Know","","测试","测试","65_201999_1.jpg","65_201999_2.pdf","65_201999_3.docx","",
"000064","2019/9/9","客戶","测试 测试 123 wdj.tw@yahoo.com.tw","ASE Industrial Holding Co., Ltd","测试 测试 测试 测试","其他","测试","测试","测试","親身經歷","不確定","1 年又 0 月","测试","测试","64_201999_1.jpg","","","",
"000063","2019/9/5","Others","TEST TEST TEST ","Others","TEST1 TEST1 TEST1 TEST1、TEST2 TEST2 TEST2 TEST2、TEST3 TEST3 TEST3 TEST3","Others","TEST","TESTESTESTESTESTESTES","TESTTESTTEST","Others","Do Not Know","2 年又 11 月","TESTTESTTEST","TESTTESTTEST","63_201995_1.pdf","63_201995_2.docx","63_201995_3.png","63_201995_4.xlsx",
"000062","2019/9/5","其他","做???   ","Others","?通 ?通 ?通 ?通","其他","做???TEST","1-6?示TEST","?确?附件中??的MVT ?有我?做?的901&911，?呈??的做???大多都不能?上，另外有MVT:521，不是PMC?呈做?，??！
TEST","其他","不確定","1 年又  月","??附件1-6?示?色部分是WH 相??料的母体，有些?料不是我??提供的我已?做了?示（?附件7），?有需要提供具体信息才能提供?料（已如???通），若有疑?可以咨?我，?知悉！ 
TEST","EHS部分?料已OK，我?USI 稽核室同仁Linda??您。其中消防部分，已通知FAC同仁?稍晚放在以下?接。
另外，需要下?料?容含在我的??物管理部分，?您??分享与他确?，??。 TEST","62_201995_1.pdf","","","",
"000061","2019/7/17","Customers","   ","ASE Industrial Holding Co., Ltd","test6 test6 test6 test6、test7 test7 test7 test7","Secret Divulgence","K7","2019/7/17","TEST-JJJKKKLLL","Personal Experience","Do Not Know","6 年又 0 月","TEST-MMMNNNOOO","TEST-PPPQQQRRR","61_2019717_1.docx","61_2019717_2.pdf","61_2019717_3.png","61_2019717_4.xlsx",
"000060","2019/7/17","媒體","   ","Advanced Semiconductor Engineering, Inc. and its subsidiaries","測試1 測試1 測試1 測試1、測試2 測試2 測試2 測試2、測試3 測試3 測試3 測試3、測試4 測試4 測試4 測試4、測試5 測試5 測試5 測試5","洩漏商業機密","K7","2019/7/17","測試AAABBBCCC","傳聞","是","5 年又 6 月","測試DDDEEEFFF","測試GGGHHHIII","60_2019717_1.docx","60_2019717_2.jpg","60_2019717_3.pdf","60_2019717_4.xlsx",
"000059","2019/7/8","Suppliers/Contractor","   ","Universal Scientific Industrial (Shanghai) Co., Ltd. and its subsidiaries","test4 test4 test4 test4、test5 test5 test5 test5、test6 test6 test6 test6","Fair Competition and Antitrust","USITW","2019/7/1~2019/7/8","TESTTESTTESTTESTTESTTEST","Experiences sharing from colleagues, relatives, and friends","yes","3 年又 0 月","TESTTESTTESTTESTTESTTEST","TESTTESTTESTTESTTESTTEST","59_201978_1.docx","59_201978_2.pdf","59_201978_3.xlsx","59_201978_4.png",
"000058","2019/7/8","員工","   ","Advanced Semiconductor Engineering, Inc. and its subsidiaries","測試1 測試1 測試1 測試1、測試2 測試2 測試2 測試2、測試3 測試3 測試3 測試3","利益衝突","k7","2019/7/8","測試測試測試","傳聞","不確定","3 年又 6 月","測試測試測試","測試測試測試","58_201978_1.docx","58_201978_2.jpg","58_201978_3.pdf","58_201978_4.xlsx",
"000057","2019/6/25","員工","?? ?? ?? ","Others","?? ?? ?? ??","其他","<?繁体字??>危??理耗材流程","<?繁体字??>危??理耗材流程","<?繁体字??>危??理耗材流程
<?繁体字??>危??理耗材流程","親身經歷","","0 年又 0 月","<?繁体字??>危??理耗材流程
<?繁体字??>危??理耗材流程","<?繁体字??>危??理耗材流程
<?繁体字??>危??理耗材流程","","","","",
"000056","2019/6/20","員工","   ","Universal Scientific Industrial (Shanghai) Co., Ltd. and its subsidiaries","員工 ?旭 ?江厂  ","舞弊","?旭?江厂","","你好： 
?旭?江厂po： 
1.2002180392；??的危??理耗材流程如何?行的，回收率?算公式也未完全?表，含有推算??，???勘工?流程及?料存放地??知 

2.2002248952；?部追加?明原????与??后的??差异，?示出追加?容的?量部分，?行核?且附加追加理由之前?什么未考?周到， 
本身是重新?划布局，又不是新建?目 

3.2002263546；此工程付款方式不利，?付款与材料??付款，??有?序?倒，供?商先拿?工厂的?去??西，然后又付?付款流程不太合理，另外工程的???的部分?次?格品牌不??模糊，价格差异大且天花板的合格?告也?有（可比?各?价厂商?料?） 

4.2002283077；此工程??中水泵有3台，但只安?2台，其中一台??注?用?是？施工工程不是??工程?包存在不安?价格差异，???示清楚及?明，管路?量也有待核?且里面包含3?Y型??器，??可?一下，只有??，申??算?本?出?呈中的回收效益?算存在不妥，??回收未安??表??行??核算，存在??未?到目?值，申??料?据查看便知 

5.空?机及冷?机??保?的??及耗材出厂??核?一下，????多少材料，?下多少????? 

6.工厂?安?有价??物的?子磅秤好像有不准的嫌疑，秤底部有磁?或是?置?差重量??存在??，可以???人??一下，??探查便知 

7.2002257178；防火卷帘?安?未提供???告及消防??????，确保正常使用?收完善 

8.2002263755；2002263758；2002264293；2002264339；不????板厚度及?格未???清楚，存在??价格上的差异且有拆?子怀疑，??价格上不知?价是否全部一致 

9.2002291226；此案子??本?出?呈ZJ消防???目整改，其中采???中有涂料刷?的?次且品牌型?都未?注，价格高低如何确定，存在?用之?象与主?不?合 

好人?保密，可去?查便知","親身經歷","不確定","2 年又 0 月","","","","","","",
